(kicad_symbol_lib (version 20211014) (generator kicad_symbol_editor)
  (symbol "GD32E503CET6" (pin_names (offset 1.016)) (in_bom yes) (on_board yes)
    (property "Reference" "U8" (id 0) (at 1.27 2.54 0)
      (effects (font (size 1.27 1.27)) (justify left))
    )
    (property "Value" "GD32E503CET6" (id 1) (at -5.08 -1.27 0)
      (effects (font (size 1.27 1.27)) (justify left))
    )
    (property "Footprint" "Package_QFP:LQFP-48_7x7mm_P0.5mm" (id 2) (at 35.56 38.1 0)
      (effects (font (size 1.27 1.27)) hide)
    )
    (property "Datasheet" "https://www.gd32mcu.com/download/down/document_id/250/path_type/1" (id 3) (at 15.24 34.29 0)
      (effects (font (size 1.27 1.27)) (justify left) hide)
    )
    (property "PartNumber" "GD32E503CET6" (id 4) (at 0 0 0)
      (effects (font (size 1.27 1.27)) hide)
    )
    (property "ki_keywords" "arm microcontroller" (id 5) (at 0 0 0)
      (effects (font (size 1.27 1.27)) hide)
    )
    (property "ki_description" "180MHz Cortex-M33 MCU, 512kB Flash, 128kB SRAM, LQFP48" (id 6) (at 0 0 0)
      (effects (font (size 1.27 1.27)) hide)
    )
    (property "ki_fp_filters" "*QFP*7x7mm*P0.5mm*" (id 7) (at 0 0 0)
      (effects (font (size 1.27 1.27)) hide)
    )
    (symbol "GD32E503CET6_0_1"
      (rectangle (start -15.24 33.02) (end 19.05 -33.02)
        (stroke (width 0.254) (type default) (color 0 0 0 0))
        (fill (type background))
      )
    )
    (symbol "GD32E503CET6_1_1"
      (pin power_in line (at -17.78 25.4 0) (length 2.54)
        (name "VBAT" (effects (font (size 1.27 1.27))))
        (number "1" (effects (font (size 1.27 1.27))))
      )
      (pin bidirectional line (at -17.78 7.62 0) (length 2.54)
        (name "PA0" (effects (font (size 1.27 1.27))))
        (number "10" (effects (font (size 1.27 1.27))))
      )
      (pin bidirectional line (at -17.78 5.08 0) (length 2.54)
        (name "PA1" (effects (font (size 1.27 1.27))))
        (number "11" (effects (font (size 1.27 1.27))))
      )
      (pin bidirectional line (at -17.78 2.54 0) (length 2.54)
        (name "PA2" (effects (font (size 1.27 1.27))))
        (number "12" (effects (font (size 1.27 1.27))))
      )
      (pin bidirectional line (at -17.78 0 0) (length 2.54)
        (name "PA3" (effects (font (size 1.27 1.27))))
        (number "13" (effects (font (size 1.27 1.27))))
      )
      (pin bidirectional line (at -17.78 -2.54 0) (length 2.54)
        (name "PA4" (effects (font (size 1.27 1.27))))
        (number "14" (effects (font (size 1.27 1.27))))
      )
      (pin bidirectional line (at -17.78 -5.08 0) (length 2.54)
        (name "PA5" (effects (font (size 1.27 1.27))))
        (number "15" (effects (font (size 1.27 1.27))))
      )
      (pin bidirectional line (at -17.78 -7.62 0) (length 2.54)
        (name "PA6" (effects (font (size 1.27 1.27))))
        (number "16" (effects (font (size 1.27 1.27))))
      )
      (pin bidirectional line (at -17.78 -10.16 0) (length 2.54)
        (name "PA7" (effects (font (size 1.27 1.27))))
        (number "17" (effects (font (size 1.27 1.27))))
      )
      (pin bidirectional line (at -17.78 -12.7 0) (length 2.54)
        (name "PB0" (effects (font (size 1.27 1.27))))
        (number "18" (effects (font (size 1.27 1.27))))
      )
      (pin bidirectional line (at -17.78 -15.24 0) (length 2.54)
        (name "PB1" (effects (font (size 1.27 1.27))))
        (number "19" (effects (font (size 1.27 1.27))))
      )
      (pin bidirectional line (at -17.78 22.86 0) (length 2.54)
        (name "PC13" (effects (font (size 1.27 1.27))))
        (number "2" (effects (font (size 1.27 1.27))))
      )
      (pin bidirectional line (at -17.78 -17.78 0) (length 2.54)
        (name "PB2" (effects (font (size 1.27 1.27))))
        (number "20" (effects (font (size 1.27 1.27))))
      )
      (pin bidirectional line (at -17.78 -20.32 0) (length 2.54)
        (name "PB10" (effects (font (size 1.27 1.27))))
        (number "21" (effects (font (size 1.27 1.27))))
      )
      (pin bidirectional line (at -17.78 -22.86 0) (length 2.54)
        (name "PB11" (effects (font (size 1.27 1.27))))
        (number "22" (effects (font (size 1.27 1.27))))
      )
      (pin power_in line (at 2.54 -35.56 90) (length 2.54)
        (name "VSS" (effects (font (size 1.27 1.27))))
        (number "23" (effects (font (size 1.27 1.27))))
      )
      (pin power_in line (at 2.54 35.56 270) (length 2.54)
        (name "VDD" (effects (font (size 1.27 1.27))))
        (number "24" (effects (font (size 1.27 1.27))))
      )
      (pin bidirectional line (at -17.78 -25.4 0) (length 2.54)
        (name "PB12" (effects (font (size 1.27 1.27))))
        (number "25" (effects (font (size 1.27 1.27))))
      )
      (pin bidirectional line (at 21.59 24.13 180) (length 2.54)
        (name "PB13" (effects (font (size 1.27 1.27))))
        (number "26" (effects (font (size 1.27 1.27))))
      )
      (pin bidirectional line (at 21.59 21.59 180) (length 2.54)
        (name "PB14" (effects (font (size 1.27 1.27))))
        (number "27" (effects (font (size 1.27 1.27))))
      )
      (pin bidirectional line (at 21.59 19.05 180) (length 2.54)
        (name "PB15" (effects (font (size 1.27 1.27))))
        (number "28" (effects (font (size 1.27 1.27))))
      )
      (pin bidirectional line (at 21.59 16.51 180) (length 2.54)
        (name "PA8" (effects (font (size 1.27 1.27))))
        (number "29" (effects (font (size 1.27 1.27))))
      )
      (pin input line (at -17.78 20.32 0) (length 2.54)
        (name "PC14_OSC32IN" (effects (font (size 1.27 1.27))))
        (number "3" (effects (font (size 1.27 1.27))))
      )
      (pin bidirectional line (at 21.59 13.97 180) (length 2.54)
        (name "PA9" (effects (font (size 1.27 1.27))))
        (number "30" (effects (font (size 1.27 1.27))))
      )
      (pin bidirectional line (at 21.59 11.43 180) (length 2.54)
        (name "PA10" (effects (font (size 1.27 1.27))))
        (number "31" (effects (font (size 1.27 1.27))))
      )
      (pin bidirectional line (at 21.59 8.89 180) (length 2.54)
        (name "PA11" (effects (font (size 1.27 1.27))))
        (number "32" (effects (font (size 1.27 1.27))))
      )
      (pin bidirectional line (at 21.59 6.35 180) (length 2.54)
        (name "PA12" (effects (font (size 1.27 1.27))))
        (number "33" (effects (font (size 1.27 1.27))))
      )
      (pin bidirectional line (at 21.59 3.81 180) (length 2.54)
        (name "PA13" (effects (font (size 1.27 1.27))))
        (number "34" (effects (font (size 1.27 1.27))))
      )
      (pin power_in line (at 12.7 -35.56 90) (length 2.54)
        (name "VSS" (effects (font (size 1.27 1.27))))
        (number "35" (effects (font (size 1.27 1.27))))
      )
      (pin power_in line (at 11.43 35.56 270) (length 2.54)
        (name "VDD" (effects (font (size 1.27 1.27))))
        (number "36" (effects (font (size 1.27 1.27))))
      )
      (pin bidirectional line (at 21.59 1.27 180) (length 2.54)
        (name "PA14" (effects (font (size 1.27 1.27))))
        (number "37" (effects (font (size 1.27 1.27))))
      )
      (pin bidirectional line (at 21.59 -1.27 180) (length 2.54)
        (name "PA15" (effects (font (size 1.27 1.27))))
        (number "38" (effects (font (size 1.27 1.27))))
      )
      (pin bidirectional line (at 21.59 -3.81 180) (length 2.54)
        (name "PB3" (effects (font (size 1.27 1.27))))
        (number "39" (effects (font (size 1.27 1.27))))
      )
      (pin output line (at -17.78 17.78 0) (length 2.54)
        (name "PC15_OSC32OUT" (effects (font (size 1.27 1.27))))
        (number "4" (effects (font (size 1.27 1.27))))
      )
      (pin bidirectional line (at 21.59 -6.35 180) (length 2.54)
        (name "PB4" (effects (font (size 1.27 1.27))))
        (number "40" (effects (font (size 1.27 1.27))))
      )
      (pin bidirectional line (at 21.59 -8.89 180) (length 2.54)
        (name "PB5" (effects (font (size 1.27 1.27))))
        (number "41" (effects (font (size 1.27 1.27))))
      )
      (pin bidirectional line (at 21.59 -11.43 180) (length 2.54)
        (name "PB6" (effects (font (size 1.27 1.27))))
        (number "42" (effects (font (size 1.27 1.27))))
      )
      (pin bidirectional line (at 21.59 -13.97 180) (length 2.54)
        (name "PB7" (effects (font (size 1.27 1.27))))
        (number "43" (effects (font (size 1.27 1.27))))
      )
      (pin bidirectional line (at 21.59 -16.51 180) (length 2.54)
        (name "BOOT0" (effects (font (size 1.27 1.27))))
        (number "44" (effects (font (size 1.27 1.27))))
      )
      (pin bidirectional line (at 21.59 -19.05 180) (length 2.54)
        (name "PB8" (effects (font (size 1.27 1.27))))
        (number "45" (effects (font (size 1.27 1.27))))
      )
      (pin bidirectional line (at 21.59 -21.59 180) (length 2.54)
        (name "PB9" (effects (font (size 1.27 1.27))))
        (number "46" (effects (font (size 1.27 1.27))))
      )
      (pin power_in line (at 7.62 -35.56 90) (length 2.54)
        (name "VSS" (effects (font (size 1.27 1.27))))
        (number "47" (effects (font (size 1.27 1.27))))
      )
      (pin power_in line (at 7.62 35.56 270) (length 2.54)
        (name "VDD" (effects (font (size 1.27 1.27))))
        (number "48" (effects (font (size 1.27 1.27))))
      )
      (pin input line (at -17.78 15.24 0) (length 2.54)
        (name "PF0-OSCIN" (effects (font (size 1.27 1.27))))
        (number "5" (effects (font (size 1.27 1.27))))
      )
      (pin output line (at -17.78 12.7 0) (length 2.54)
        (name "PF1-OSCOUT" (effects (font (size 1.27 1.27))))
        (number "6" (effects (font (size 1.27 1.27))))
      )
      (pin bidirectional line (at -17.78 10.16 0) (length 2.54)
        (name "NRST" (effects (font (size 1.27 1.27))))
        (number "7" (effects (font (size 1.27 1.27))))
      )
      (pin power_in line (at -2.54 -35.56 90) (length 2.54)
        (name "VSSA" (effects (font (size 1.27 1.27))))
        (number "8" (effects (font (size 1.27 1.27))))
      )
      (pin power_in line (at -2.54 35.56 270) (length 2.54)
        (name "VDDA" (effects (font (size 1.27 1.27))))
        (number "9" (effects (font (size 1.27 1.27))))
      )
    )
  )
  (symbol "MIC94070YC6" (pin_names (offset 1.016)) (in_bom yes) (on_board yes)
    (property "Reference" "U" (id 0) (at 0 3.81 0)
      (effects (font (size 1.27 1.27)))
    )
    (property "Value" "MIC94070YC6" (id 1) (at 10.16 -6.35 0)
      (effects (font (size 1.27 1.27)))
    )
    (property "Footprint" "Package_TO_SOT_SMD:SOT-363_SC-70-6" (id 2) (at 0 -19.05 0)
      (effects (font (size 1.27 1.27)) hide)
    )
    (property "Datasheet" "https://ww1.microchip.com/downloads/en/DeviceDoc/mic94070-3.pdf" (id 3) (at 1.27 11.43 0)
      (effects (font (size 1.27 1.27)) hide)
    )
    (property "PartNumber" "MIC94070YC6" (id 4) (at 10.16 -6.35 0)
      (effects (font (size 1.27 1.27)) hide)
    )
    (symbol "MIC94070YC6_0_0"
      (pin power_out line (at 8.89 1.27 180) (length 2.54)
        (name "VOUT" (effects (font (size 1.27 1.27))))
        (number "1" (effects (font (size 1.27 1.27))))
      )
      (pin power_in line (at 0 -6.35 90) (length 2.54)
        (name "GND" (effects (font (size 1.27 1.27))))
        (number "2" (effects (font (size 1.27 1.27))))
      )
      (pin input line (at -7.62 -1.27 0) (length 2.54)
        (name "ON" (effects (font (size 1.27 1.27))))
        (number "3" (effects (font (size 1.27 1.27))))
      )
      (pin power_in line (at -7.62 1.27 0) (length 2.54)
        (name "VIN" (effects (font (size 1.27 1.27))))
        (number "4" (effects (font (size 1.27 1.27))))
      )
      (pin power_in line (at 0 -6.35 90) (length 2.54) hide
        (name "GND" (effects (font (size 1.27 1.27))))
        (number "5" (effects (font (size 1.27 1.27))))
      )
    )
    (symbol "MIC94070YC6_0_1"
      (rectangle (start -5.08 2.54) (end 6.35 -3.81)
        (stroke (width 0) (type default) (color 0 0 0 0))
        (fill (type background))
      )
    )
  )
  (symbol "MP2161" (in_bom yes) (on_board yes)
    (property "Reference" "U" (id 0) (at 1.27 7.62 0)
      (effects (font (size 1.27 1.27)))
    )
    (property "Value" "MP2161" (id 1) (at 11.43 -8.89 0)
      (effects (font (size 1.27 1.27)))
    )
    (property "Footprint" "Package_TO_SOT_SMD:TSOT-23-8" (id 2) (at 1.27 10.16 0)
      (effects (font (size 1.27 1.27)) hide)
    )
    (property "Datasheet" "https://www.digikey.com/htmldatasheets/production/1784920/0/0/1/MP2161-Datasheet.pdf" (id 3) (at -1.27 -20.32 0)
      (effects (font (size 1.27 1.27)) hide)
    )
    (symbol "MP2161_0_1"
      (rectangle (start -2.54 6.35) (end 7.62 -7.62)
        (stroke (width 0) (type default) (color 0 0 0 0))
        (fill (type background))
      )
    )
    (symbol "MP2161_1_1"
      (pin output line (at -5.08 -6.35 0) (length 2.54)
        (name "PG" (effects (font (size 1.27 1.27))))
        (number "1" (effects (font (size 1.27 1.27))))
      )
      (pin power_in line (at -5.08 5.08 0) (length 2.54)
        (name "VIN" (effects (font (size 1.27 1.27))))
        (number "2" (effects (font (size 1.27 1.27))))
      )
      (pin output line (at 10.16 5.08 180) (length 2.54)
        (name "SW" (effects (font (size 1.27 1.27))))
        (number "3" (effects (font (size 1.27 1.27))))
      )
      (pin power_in line (at 2.54 -10.16 90) (length 2.54)
        (name "GND" (effects (font (size 1.27 1.27))))
        (number "4" (effects (font (size 1.27 1.27))))
      )
      (pin input line (at 10.16 1.27 180) (length 2.54)
        (name "OUT" (effects (font (size 1.27 1.27))))
        (number "5" (effects (font (size 1.27 1.27))))
      )
      (pin power_in line (at 2.54 -10.16 90) (length 2.54) hide
        (name "GND" (effects (font (size 1.27 1.27))))
        (number "6" (effects (font (size 1.27 1.27))))
      )
      (pin input line (at 10.16 -5.08 180) (length 2.54)
        (name "FB" (effects (font (size 1.27 1.27))))
        (number "7" (effects (font (size 1.27 1.27))))
      )
      (pin input line (at -5.08 -2.54 0) (length 2.54)
        (name "EN" (effects (font (size 1.27 1.27))))
        (number "8" (effects (font (size 1.27 1.27))))
      )
    )
  )
  (symbol "SAWFilter" (pin_names (offset 1.016)) (in_bom yes) (on_board yes)
    (property "Reference" "U" (id 0) (at 2.54 3.81 0)
      (effects (font (size 1.27 1.27)))
    )
    (property "Value" "SAWFilter" (id 1) (at 0 1.27 0)
      (effects (font (size 1.27 1.27)))
    )
    (property "Footprint" "kompressor:B3728" (id 2) (at 0 0 0)
      (effects (font (size 1.27 1.27)) hide)
    )
    (property "Datasheet" "https://datasheet.octopart.com/B39921B3728U410-RF360-Holdings-datasheet-87580075.pdf" (id 3) (at 0 0 0)
      (effects (font (size 1.27 1.27)) hide)
    )
    (property "ki_description" "SAW Filter" (id 4) (at 0 0 0)
      (effects (font (size 1.27 1.27)) hide)
    )
    (symbol "SAWFilter_0_1"
      (rectangle (start -6.35 2.54) (end 6.35 -5.08)
        (stroke (width 0) (type default) (color 0 0 0 0))
        (fill (type background))
      )
    )
    (symbol "SAWFilter_1_1"
      (pin power_in line (at 0 -7.62 90) (length 2.54)
        (name "GND" (effects (font (size 1.27 1.27))))
        (number "1" (effects (font (size 1.27 1.27))))
      )
      (pin input line (at -8.89 0 0) (length 2.54)
        (name "IN" (effects (font (size 1.27 1.27))))
        (number "2" (effects (font (size 1.27 1.27))))
      )
      (pin power_in line (at 0 -7.62 90) (length 2.54) hide
        (name "GND" (effects (font (size 1.27 1.27))))
        (number "3" (effects (font (size 1.27 1.27))))
      )
      (pin power_in line (at 0 -7.62 90) (length 2.54) hide
        (name "GND" (effects (font (size 1.27 1.27))))
        (number "4" (effects (font (size 1.27 1.27))))
      )
      (pin output line (at 8.89 0 180) (length 2.54)
        (name "OUT" (effects (font (size 1.27 1.27))))
        (number "5" (effects (font (size 1.27 1.27))))
      )
      (pin power_in line (at 0 -7.62 90) (length 2.54) hide
        (name "GND" (effects (font (size 1.27 1.27))))
        (number "6" (effects (font (size 1.27 1.27))))
      )
    )
  )
  (symbol "SGM2578" (pin_names (offset 1.016)) (in_bom yes) (on_board yes)
    (property "Reference" "U" (id 0) (at 0 3.81 0)
      (effects (font (size 1.27 1.27)))
    )
    (property "Value" "SGM2578" (id 1) (at 10.16 -6.35 0)
      (effects (font (size 1.27 1.27)))
    )
    (property "Footprint" "kompressor:WLCSP_0.9x0.9-4" (id 2) (at 0 -19.05 0)
      (effects (font (size 1.27 1.27)) hide)
    )
    (property "Datasheet" "http://www.sg-micro.com/uploads/soft/20211224/1640342309.pdf" (id 3) (at 1.27 11.43 0)
      (effects (font (size 1.27 1.27)) hide)
    )
    (property "PartNumber" "SGM2578" (id 4) (at 10.16 -6.35 0)
      (effects (font (size 1.27 1.27)) hide)
    )
    (symbol "SGM2578_0_0"
      (pin power_out line (at 8.89 1.27 180) (length 2.54)
        (name "VOUT" (effects (font (size 1.27 1.27))))
        (number "A1" (effects (font (size 1.27 1.27))))
      )
      (pin power_in line (at -7.62 1.27 0) (length 2.54)
        (name "VIN" (effects (font (size 1.27 1.27))))
        (number "A2" (effects (font (size 1.27 1.27))))
      )
      (pin power_in line (at 0 -6.35 90) (length 2.54)
        (name "GND" (effects (font (size 1.27 1.27))))
        (number "B1" (effects (font (size 1.27 1.27))))
      )
      (pin input line (at -7.62 -1.27 0) (length 2.54)
        (name "EN" (effects (font (size 1.27 1.27))))
        (number "B2" (effects (font (size 1.27 1.27))))
      )
    )
    (symbol "SGM2578_0_1"
      (rectangle (start -5.08 2.54) (end 6.35 -3.81)
        (stroke (width 0) (type default) (color 0 0 0 0))
        (fill (type background))
      )
    )
  )
  (symbol "SKY66420-11" (pin_names (offset 1.016)) (in_bom yes) (on_board yes)
    (property "Reference" "U" (id 0) (at 7.62 10.16 0)
      (effects (font (size 1.27 1.27)))
    )
    (property "Value" "SKY66420-11" (id 1) (at 11.43 -11.43 0)
      (effects (font (size 1.27 1.27)))
    )
    (property "Footprint" "" (id 2) (at 7.62 -3.81 0)
      (effects (font (size 1.27 1.27)) hide)
    )
    (property "Datasheet" "" (id 3) (at 7.62 -3.81 0)
      (effects (font (size 1.27 1.27)) hide)
    )
    (symbol "SKY66420-11_0_0"
      (pin input line (at -15.24 6.35 0) (length 2.54)
        (name "TX" (effects (font (size 1.27 1.27))))
        (number "1" (effects (font (size 1.27 1.27))))
      )
      (pin power_in line (at -5.08 -11.43 90) (length 2.54)
        (name "GND" (effects (font (size 1.27 1.27))))
        (number "10" (effects (font (size 1.27 1.27))))
      )
      (pin unspecified line (at 13.97 3.81 180) (length 2.54)
        (name "TX_IN" (effects (font (size 1.27 1.27))))
        (number "11" (effects (font (size 1.27 1.27))))
      )
      (pin power_in line (at -5.08 -11.43 90) (length 2.54) hide
        (name "GND" (effects (font (size 1.27 1.27))))
        (number "12" (effects (font (size 1.27 1.27))))
      )
      (pin unspecified line (at 3.81 11.43 270) (length 2.54)
        (name "PA_OUT" (effects (font (size 1.27 1.27))))
        (number "13" (effects (font (size 1.27 1.27))))
      )
      (pin no_connect line (at 2.54 0 0) (length 2.54) hide
        (name "NC" (effects (font (size 1.27 1.27))))
        (number "14" (effects (font (size 1.27 1.27))))
      )
      (pin power_in line (at -1.27 11.43 270) (length 2.54)
        (name "VCC0" (effects (font (size 1.27 1.27))))
        (number "15" (effects (font (size 1.27 1.27))))
      )
      (pin power_in line (at -5.08 11.43 270) (length 2.54)
        (name "VCC1" (effects (font (size 1.27 1.27))))
        (number "16" (effects (font (size 1.27 1.27))))
      )
      (pin power_in line (at -5.08 -11.43 90) (length 2.54) hide
        (name "GND" (effects (font (size 1.27 1.27))))
        (number "17" (effects (font (size 1.27 1.27))))
      )
      (pin unspecified line (at -15.24 3.81 0) (length 2.54)
        (name "RX" (effects (font (size 1.27 1.27))))
        (number "2" (effects (font (size 1.27 1.27))))
      )
      (pin unspecified line (at -15.24 1.27 0) (length 2.54)
        (name "TX_ALT" (effects (font (size 1.27 1.27))))
        (number "3" (effects (font (size 1.27 1.27))))
      )
      (pin unspecified line (at -15.24 -6.35 0) (length 2.54)
        (name "CSD" (effects (font (size 1.27 1.27))))
        (number "4" (effects (font (size 1.27 1.27))))
      )
      (pin unspecified line (at -15.24 -3.81 0) (length 2.54)
        (name "CPS" (effects (font (size 1.27 1.27))))
        (number "5" (effects (font (size 1.27 1.27))))
      )
      (pin unspecified line (at -15.24 -1.27 0) (length 2.54)
        (name "CTX" (effects (font (size 1.27 1.27))))
        (number "6" (effects (font (size 1.27 1.27))))
      )
      (pin unspecified line (at -1.27 -11.43 90) (length 2.54)
        (name "LNA_IN" (effects (font (size 1.27 1.27))))
        (number "7" (effects (font (size 1.27 1.27))))
      )
      (pin unspecified line (at 2.54 -11.43 90) (length 2.54)
        (name "RX_FLT" (effects (font (size 1.27 1.27))))
        (number "8" (effects (font (size 1.27 1.27))))
      )
      (pin unspecified line (at 13.97 -2.54 180) (length 2.54)
        (name "ANT" (effects (font (size 1.27 1.27))))
        (number "9" (effects (font (size 1.27 1.27))))
      )
    )
    (symbol "SKY66420-11_0_1"
      (rectangle (start -12.7 8.89) (end 11.43 -8.89)
        (stroke (width 0) (type default) (color 0 0 0 0))
        (fill (type background))
      )
    )
  )
  (symbol "TCXO" (pin_names (offset 1.016)) (in_bom yes) (on_board yes)
    (property "Reference" "Y" (id 0) (at -5.08 3.81 0)
      (effects (font (size 1.27 1.27)))
    )
    (property "Value" "TCXO" (id 1) (at 5.08 -10.16 0)
      (effects (font (size 1.27 1.27)))
    )
    (property "Footprint" "" (id 2) (at 0 0 0)
      (effects (font (size 1.27 1.27)) hide)
    )
    (property "Datasheet" "" (id 3) (at 0 0 0)
      (effects (font (size 1.27 1.27)) hide)
    )
    (property "ki_description" "Generic Temperature compensated crystal oscillator" (id 4) (at 0 0 0)
      (effects (font (size 1.27 1.27)) hide)
    )
    (symbol "TCXO_0_0"
      (pin power_in line (at 0 -10.16 90) (length 2.54) hide
        (name "GND" (effects (font (size 1.27 1.27))))
        (number "1" (effects (font (size 1.27 1.27))))
      )
    )
    (symbol "TCXO_0_1"
      (rectangle (start -6.35 2.54) (end 6.35 -7.62)
        (stroke (width 0) (type default) (color 0 0 0 0))
        (fill (type background))
      )
      (polyline
        (pts
          (xy 2.54 -3.81)
          (xy 3.175 -3.81)
          (xy 3.175 -2.54)
          (xy 3.81 -2.54)
          (xy 3.81 -3.81)
          (xy 4.445 -3.81)
          (xy 4.445 -2.54)
          (xy 5.08 -2.54)
          (xy 5.08 -3.81)
        )
        (stroke (width 0) (type default) (color 0 0 0 0))
        (fill (type none))
      )
    )
    (symbol "TCXO_1_1"
      (pin power_in line (at 0 -10.16 90) (length 2.54)
        (name "GND" (effects (font (size 1.27 1.27))))
        (number "2" (effects (font (size 1.27 1.27))))
      )
      (pin output line (at 8.89 0 180) (length 2.54)
        (name "OUT" (effects (font (size 1.27 1.27))))
        (number "3" (effects (font (size 1.27 1.27))))
      )
      (pin power_in line (at -8.89 0 0) (length 2.54)
        (name "VCC" (effects (font (size 1.27 1.27))))
        (number "4" (effects (font (size 1.27 1.27))))
      )
    )
  )
  (symbol "TPS622xx" (pin_names (offset 1.016)) (in_bom yes) (on_board yes)
    (property "Reference" "U" (id 0) (at 0 6.35 0)
      (effects (font (size 1.27 1.27)))
    )
    (property "Value" "TPS622xx" (id 1) (at 7.62 -6.35 0)
      (effects (font (size 1.27 1.27)))
    )
    (property "Footprint" "" (id 2) (at 0 0 0)
      (effects (font (size 1.27 1.27)) hide)
    )
    (property "Datasheet" "" (id 3) (at 0 0 0)
      (effects (font (size 1.27 1.27)) hide)
    )
    (symbol "TPS622xx_0_0"
      (pin input line (at -8.89 -2.54 0) (length 2.54)
        (name "MODE" (effects (font (size 1.27 1.27))))
        (number "1" (effects (font (size 1.27 1.27))))
      )
      (pin output line (at 10.16 3.81 180) (length 2.54)
        (name "SW" (effects (font (size 1.27 1.27))))
        (number "2" (effects (font (size 1.27 1.27))))
      )
      (pin power_in line (at -8.89 3.81 0) (length 2.54)
        (name "VIN" (effects (font (size 1.27 1.27))))
        (number "3" (effects (font (size 1.27 1.27))))
      )
      (pin power_in line (at 1.27 -6.35 90) (length 2.54)
        (name "GND" (effects (font (size 1.27 1.27))))
        (number "4" (effects (font (size 1.27 1.27))))
      )
      (pin input line (at -8.89 1.27 0) (length 2.54)
        (name "EN" (effects (font (size 1.27 1.27))))
        (number "5" (effects (font (size 1.27 1.27))))
      )
      (pin input line (at 10.16 -1.27 180) (length 2.54)
        (name "FB" (effects (font (size 1.27 1.27))))
        (number "6" (effects (font (size 1.27 1.27))))
      )
    )
    (symbol "TPS622xx_0_1"
      (rectangle (start -6.35 5.08) (end 7.62 -3.81)
        (stroke (width 0) (type default) (color 0 0 0 0))
        (fill (type background))
      )
    )
  )
  (symbol "ZOE-M8Q" (pin_names (offset 1.016)) (in_bom yes) (on_board yes)
    (property "Reference" "U" (id 0) (at 11.43 21.59 0)
      (effects (font (size 1.27 1.27)))
    )
    (property "Value" "ZOE-M8Q" (id 1) (at 7.62 -20.32 0)
      (effects (font (size 1.27 1.27)))
    )
    (property "Footprint" "" (id 2) (at 0 0 0)
      (effects (font (size 1.27 1.27)) hide)
    )
    (property "Datasheet" "" (id 3) (at 0 0 0)
      (effects (font (size 1.27 1.27)) hide)
    )
    (symbol "ZOE-M8Q_0_0"
      (pin power_in line (at 0 -21.59 90) (length 2.54)
        (name "GND" (effects (font (size 1.27 1.27))))
        (number "A1" (effects (font (size 1.27 1.27))))
      )
      (pin bidirectional line (at 17.78 17.78 180) (length 2.54)
        (name "SDA/~{SPI_CS}" (effects (font (size 1.27 1.27))))
        (number "A2" (effects (font (size 1.27 1.27))))
      )
      (pin power_in line (at 0 -21.59 90) (length 2.54) hide
        (name "GND" (effects (font (size 1.27 1.27))))
        (number "A3" (effects (font (size 1.27 1.27))))
      )
      (pin unspecified line (at -17.78 1.27 0) (length 2.54)
        (name "RF_IN" (effects (font (size 1.27 1.27))))
        (number "A4" (effects (font (size 1.27 1.27))))
      )
      (pin power_in line (at 0 -21.59 90) (length 2.54) hide
        (name "GND" (effects (font (size 1.27 1.27))))
        (number "A5" (effects (font (size 1.27 1.27))))
      )
      (pin power_in line (at 0 -21.59 90) (length 2.54) hide
        (name "GND" (effects (font (size 1.27 1.27))))
        (number "A7" (effects (font (size 1.27 1.27))))
      )
      (pin power_in line (at 0 -21.59 90) (length 2.54) hide
        (name "GND" (effects (font (size 1.27 1.27))))
        (number "A8" (effects (font (size 1.27 1.27))))
      )
      (pin power_in line (at 0 -21.59 90) (length 2.54) hide
        (name "GND" (effects (font (size 1.27 1.27))))
        (number "A9" (effects (font (size 1.27 1.27))))
      )
      (pin input line (at 17.78 15.24 180) (length 2.54)
        (name "SCL/SPI_CLK" (effects (font (size 1.27 1.27))))
        (number "B1" (effects (font (size 1.27 1.27))))
      )
      (pin power_in line (at 0 -21.59 90) (length 2.54) hide
        (name "GND" (effects (font (size 1.27 1.27))))
        (number "B9" (effects (font (size 1.27 1.27))))
      )
      (pin input line (at -17.78 -10.16 0) (length 2.54)
        (name "SQI_D1" (effects (font (size 1.27 1.27))))
        (number "C1" (effects (font (size 1.27 1.27))))
      )
      (pin output line (at 17.78 -8.89 180) (length 2.54)
        (name "TIMEPULSE" (effects (font (size 1.27 1.27))))
        (number "C3" (effects (font (size 1.27 1.27))))
      )
      (pin input line (at 17.78 -11.43 180) (length 2.54)
        (name "~{SAFEBOOT}" (effects (font (size 1.27 1.27))))
        (number "C4" (effects (font (size 1.27 1.27))))
      )
      (pin output line (at 17.78 -13.97 180) (length 2.54)
        (name "LNA_EN" (effects (font (size 1.27 1.27))))
        (number "C5" (effects (font (size 1.27 1.27))))
      )
      (pin bidirectional line (at 17.78 -16.51 180) (length 2.54)
        (name "PIO15" (effects (font (size 1.27 1.27))))
        (number "C6" (effects (font (size 1.27 1.27))))
      )
      (pin power_in line (at 0 -21.59 90) (length 2.54) hide
        (name "GND" (effects (font (size 1.27 1.27))))
        (number "C7" (effects (font (size 1.27 1.27))))
      )
      (pin power_in line (at 0 -21.59 90) (length 2.54) hide
        (name "GND" (effects (font (size 1.27 1.27))))
        (number "C9" (effects (font (size 1.27 1.27))))
      )
      (pin bidirectional line (at -17.78 -7.62 0) (length 2.54)
        (name "SQI_D0" (effects (font (size 1.27 1.27))))
        (number "D1" (effects (font (size 1.27 1.27))))
      )
      (pin bidirectional line (at -17.78 -2.54 0) (length 2.54)
        (name "~{SQI_CS}" (effects (font (size 1.27 1.27))))
        (number "D3" (effects (font (size 1.27 1.27))))
      )
      (pin input line (at 17.78 5.08 180) (length 2.54)
        (name "D_SEL" (effects (font (size 1.27 1.27))))
        (number "D4" (effects (font (size 1.27 1.27))))
      )
      (pin power_in line (at 0 -21.59 90) (length 2.54) hide
        (name "GND" (effects (font (size 1.27 1.27))))
        (number "D6" (effects (font (size 1.27 1.27))))
      )
      (pin power_in line (at 0 -21.59 90) (length 2.54) hide
        (name "GND" (effects (font (size 1.27 1.27))))
        (number "D9" (effects (font (size 1.27 1.27))))
      )
      (pin bidirectional line (at -17.78 -5.08 0) (length 2.54)
        (name "SQI_CLK" (effects (font (size 1.27 1.27))))
        (number "E1" (effects (font (size 1.27 1.27))))
      )
      (pin bidirectional line (at -17.78 -12.7 0) (length 2.54)
        (name "SQI_D2" (effects (font (size 1.27 1.27))))
        (number "E3" (effects (font (size 1.27 1.27))))
      )
      (pin power_in line (at 0 -21.59 90) (length 2.54) hide
        (name "GND" (effects (font (size 1.27 1.27))))
        (number "E7" (effects (font (size 1.27 1.27))))
      )
      (pin bidirectional line (at -17.78 -15.24 0) (length 2.54)
        (name "SQI_D3" (effects (font (size 1.27 1.27))))
        (number "F3" (effects (font (size 1.27 1.27))))
      )
      (pin bidirectional line (at 17.78 -6.35 180) (length 2.54)
        (name "PIO14" (effects (font (size 1.27 1.27))))
        (number "F6" (effects (font (size 1.27 1.27))))
      )
      (pin power_in line (at 0 -21.59 90) (length 2.54) hide
        (name "GND" (effects (font (size 1.27 1.27))))
        (number "F7" (effects (font (size 1.27 1.27))))
      )
      (pin power_in line (at -17.78 12.7 0) (length 2.54)
        (name "V_CORE" (effects (font (size 1.27 1.27))))
        (number "G1" (effects (font (size 1.27 1.27))))
      )
      (pin power_in line (at 0 -21.59 90) (length 2.54) hide
        (name "GND" (effects (font (size 1.27 1.27))))
        (number "G3" (effects (font (size 1.27 1.27))))
      )
      (pin input line (at 17.78 -3.81 180) (length 2.54)
        (name "PIO13/EXTINT" (effects (font (size 1.27 1.27))))
        (number "G4" (effects (font (size 1.27 1.27))))
      )
      (pin power_in line (at 0 -21.59 90) (length 2.54) hide
        (name "GND" (effects (font (size 1.27 1.27))))
        (number "G6" (effects (font (size 1.27 1.27))))
      )
      (pin power_in line (at 0 -21.59 90) (length 2.54) hide
        (name "GND" (effects (font (size 1.27 1.27))))
        (number "G7" (effects (font (size 1.27 1.27))))
      )
      (pin output line (at -17.78 10.16 0) (length 2.54)
        (name "V_DCDC_OUT" (effects (font (size 1.27 1.27))))
        (number "H1" (effects (font (size 1.27 1.27))))
      )
      (pin power_in line (at -17.78 15.24 0) (length 2.54)
        (name "V_BCKP" (effects (font (size 1.27 1.27))))
        (number "H9" (effects (font (size 1.27 1.27))))
      )
      (pin power_in line (at -17.78 17.78 0) (length 2.54)
        (name "VCC" (effects (font (size 1.27 1.27))))
        (number "J1" (effects (font (size 1.27 1.27))))
      )
      (pin power_in line (at -17.78 17.78 0) (length 2.54) hide
        (name "VCC" (effects (font (size 1.27 1.27))))
        (number "J2" (effects (font (size 1.27 1.27))))
      )
      (pin power_in line (at 0 -21.59 90) (length 2.54) hide
        (name "GND" (effects (font (size 1.27 1.27))))
        (number "J3" (effects (font (size 1.27 1.27))))
      )
      (pin input line (at 17.78 12.7 180) (length 2.54)
        (name "RXD/SPI_MOSI" (effects (font (size 1.27 1.27))))
        (number "J4" (effects (font (size 1.27 1.27))))
      )
      (pin output line (at 17.78 10.16 180) (length 2.54)
        (name "TXD/SPI_MISO" (effects (font (size 1.27 1.27))))
        (number "J5" (effects (font (size 1.27 1.27))))
      )
      (pin input line (at -17.78 6.35 0) (length 2.54)
        (name "~{RESET}" (effects (font (size 1.27 1.27))))
        (number "J6" (effects (font (size 1.27 1.27))))
      )
      (pin input line (at 17.78 -1.27 180) (length 2.54)
        (name "RTC_I" (effects (font (size 1.27 1.27))))
        (number "J7" (effects (font (size 1.27 1.27))))
      )
      (pin output line (at 17.78 1.27 180) (length 2.54)
        (name "RTC_O" (effects (font (size 1.27 1.27))))
        (number "J8" (effects (font (size 1.27 1.27))))
      )
      (pin power_in line (at 0 -21.59 90) (length 2.54) hide
        (name "GND" (effects (font (size 1.27 1.27))))
        (number "J9" (effects (font (size 1.27 1.27))))
      )
    )
    (symbol "ZOE-M8Q_0_1"
      (rectangle (start -15.24 20.32) (end 15.24 -19.05)
        (stroke (width 0) (type default) (color 0 0 0 0))
        (fill (type background))
      )
    )
  )
)
