(footprint "RF Shield" (version 20211014) (generator pcbnew)
  (layer "F.Cu")
  (tedit 0)
  (attr smd)
  (fp_text reference "REF**" (at 2 -31 unlocked) (layer "F.SilkS") hide
    (effects (font (size 1 1) (thickness 0.15)))
    (tstamp 28d92947-bcae-49d6-8857-ea5841ebb583)
  )
  (fp_text value "RF Shield" (at 2 1.5 unlocked) (layer "F.Fab")
    (effects (font (size 1 1) (thickness 0.15)))
    (tstamp c896977f-0cad-4c0a-9f0c-de3d14701382)
  )
  (fp_text user "${REFERENCE}" (at 38.5 -30.5 unlocked) (layer "F.Fab")
    (effects (font (size 1 1) (thickness 0.15)))
    (tstamp a5fea723-15b2-4959-9b07-203b17eeab4a)
  )
  (fp_line (start 0.15 -6.85) (end -0.15 -6.85) (layer "User.1") (width 0.01) (tstamp 0359e6ea-da3a-40c8-899d-018757bf3d88))
  (fp_line (start -0.15 -11.85) (end -0.15 -10.85) (layer "User.1") (width 0.01) (tstamp 0c85f03f-9a0f-475e-950a-0ba535c4794f))
  (fp_line (start 38.2 -0.15) (end 1.5 -0.15) (layer "User.1") (width 0.01) (tstamp 10f61c4c-6740-49e6-862f-fe4a3544dd0b))
  (fp_line (start 38.2 -28.55) (end 1.5 -28.55) (layer "User.1") (width 0.01) (tstamp 146d3240-834f-42c0-8379-74968a12f2bb))
  (fp_line (start -0.15 -19.35) (end -0.15 -18.35) (layer "User.1") (width 0.01) (tstamp 16400bae-ad5f-4969-99d1-b79e8c007915))
  (fp_line (start 0.15 -16.85) (end -0.15 -16.85) (layer "User.1") (width 0.01) (tstamp 19145216-e45f-4861-be09-437994ab3697))
  (fp_line (start 39.55 -11.85) (end 39.85 -11.85) (layer "User.1") (width 0.01) (tstamp 1cd41ddf-80be-40ea-82f5-a5d39090f366))
  (fp_line (start 0.15 -27.2) (end 0.15 -25.85) (layer "User.1") (width 0.01) (tstamp 1dbe2604-d968-411a-bf13-acba16e802d5))
  (fp_line (start 0.15 -14.35) (end -0.15 -14.35) (layer "User.1") (width 0.01) (tstamp 216cf217-85b4-4b76-ac02-9a74ee451004))
  (fp_line (start 0.15 -19.35) (end 0.15 -18.35) (layer "User.1") (width 0.01) (tstamp 245aaf69-1dfb-4a07-a607-42245bd2c23e))
  (fp_line (start 0.15 -24.35) (end 0.15 -23.35) (layer "User.1") (width 0.01) (tstamp 29775c0e-aef8-43ee-b668-09ec48d90de7))
  (fp_line (start 39.55 -11.85) (end 39.55 -1.5) (layer "User.1") (width 0.01) (tstamp 2dd6d80d-6839-46e2-b689-157f1c0100e0))
  (fp_line (start 0.15 -18.35) (end -0.15 -18.35) (layer "User.1") (width 0.01) (tstamp 34ddfeb6-161b-49f2-a332-0f6194068273))
  (fp_line (start 39.85 -11.85) (end 39.85 -1.5) (layer "User.1") (width 0.01) (tstamp 4c783dae-2d53-4ce6-90fe-cc6efe283b70))
  (fp_line (start -0.15 -14.35) (end -0.15 -13.35) (layer "User.1") (width 0.01) (tstamp 5168ff11-894b-4943-b12f-db0fe45ad485))
  (fp_line (start 0.15 -25.85) (end -0.15 -25.85) (layer "User.1") (width 0.01) (tstamp 570bad5d-e569-4d54-8843-81626bef2ae1))
  (fp_line (start -0.15 -24.35) (end -0.15 -23.35) (layer "User.1") (width 0.01) (tstamp 59c6d213-a255-4df1-9d0a-f9afde2a4c76))
  (fp_line (start -0.15 -6.85) (end -0.15 -1.5) (layer "User.1") (width 0.01) (tstamp 59e1dabb-ab82-4d56-978a-70e15bf6403e))
  (fp_line (start 0.15 -15.85) (end -0.15 -15.85) (layer "User.1") (width 0.01) (tstamp 73510fe1-4923-4ad3-b2d0-4ea5176de6a5))
  (fp_line (start 39.85 -27.2) (end 39.85 -16.85) (layer "User.1") (width 0.01) (tstamp 77e40989-a83a-4dbf-b438-0a2755fcde3d))
  (fp_line (start 0.15 -21.85) (end -0.15 -21.85) (layer "User.1") (width 0.01) (tstamp 7c92c399-31bd-4eb1-9d62-2b0008053f2a))
  (fp_line (start 0.15 -19.35) (end -0.15 -19.35) (layer "User.1") (width 0.01) (tstamp 85d62250-b5e6-4862-8f63-5df0c488fdb1))
  (fp_line (start 0.15 -24.35) (end -0.15 -24.35) (layer "User.1") (width 0.01) (tstamp 882873b0-090a-4d91-af59-2c86b3d68645))
  (fp_line (start 0.15 -9.35) (end 0.15 -8.35) (layer "User.1") (width 0.01) (tstamp 89d42fbc-84d7-4a5e-a231-ba3d74d79f45))
  (fp_line (start 0.15 -11.85) (end -0.15 -11.85) (layer "User.1") (width 0.01) (tstamp 8e2fc709-62be-43b9-a384-377825bd4107))
  (fp_line (start 0.15 -13.35) (end -0.15 -13.35) (layer "User.1") (width 0.01) (tstamp 96585533-71a6-4c94-bc76-e3143ab68207))
  (fp_line (start 0.15 -10.85) (end -0.15 -10.85) (layer "User.1") (width 0.01) (tstamp 9a15526b-e064-46d6-818a-2cffea4ba94e))
  (fp_line (start -0.15 -27.2) (end -0.15 -25.85) (layer "User.1") (width 0.01) (tstamp a0361431-cc04-4522-94ff-418e31561261))
  (fp_line (start 0.15 -14.35) (end 0.15 -13.35) (layer "User.1") (width 0.01) (tstamp a2a2309e-bc3b-41b3-abc9-508f83247d2f))
  (fp_line (start -0.15 -16.85) (end -0.15 -15.85) (layer "User.1") (width 0.01) (tstamp a8901ec5-57d8-44e5-ba96-5eaf59431cf3))
  (fp_line (start 0.15 -6.85) (end 0.15 -1.5) (layer "User.1") (width 0.01) (tstamp b85d1e62-ad8f-4993-ad1c-dad2c5b0a642))
  (fp_line (start 39.55 -16.85) (end 39.85 -16.85) (layer "User.1") (width 0.01) (tstamp c5649d93-3d79-4934-81c3-7edcc201c3dc))
  (fp_line (start 39.85 -15.35) (end 39.85 -13.35) (layer "User.1") (width 0.01) (tstamp c6f124ee-aa5f-466c-aa65-82a5dcdc5a12))
  (fp_line (start -0.15 -9.35) (end -0.15 -8.35) (layer "User.1") (width 0.01) (tstamp cc834d15-dc32-449b-858d-ad7ee6214dfd))
  (fp_line (start 39.55 -15.35) (end 39.85 -15.35) (layer "User.1") (width 0.01) (tstamp d4d1f122-1a2f-42e2-a91f-89664893c7a5))
  (fp_line (start 38.2 0.15) (end 1.5 0.15) (layer "User.1") (width 0.01) (tstamp d675aece-21e8-4458-ae62-69e7d7a70f6e))
  (fp_line (start 0.15 -20.85) (end -0.15 -20.85) (layer "User.1") (width 0.01) (tstamp d715e731-fd61-409e-ba6e-6031ae3d0293))
  (fp_line (start 39.55 -27.2) (end 39.55 -16.85) (layer "User.1") (width 0.01) (tstamp dd951fcc-0581-43d2-a95a-a9a0fac26a20))
  (fp_line (start 39.55 -15.35) (end 39.55 -13.35) (layer "User.1") (width 0.01) (tstamp e0c86514-277f-4acf-afb7-9b33189b78a1))
  (fp_line (start 38.2 -28.85) (end 1.5 -28.85) (layer "User.1") (width 0.01) (tstamp e261ad8a-caf5-4fd0-964f-6820e22442e6))
  (fp_line (start -0.15 -21.85) (end -0.15 -20.85) (layer "User.1") (width 0.01) (tstamp e637a796-bc16-4399-9278-a0cdd80deb84))
  (fp_line (start 0.15 -16.85) (end 0.15 -15.85) (layer "User.1") (width 0.01) (tstamp e75f6cf4-0cbe-4fd5-ad65-56a19c7f7126))
  (fp_line (start 0.15 -23.35) (end -0.15 -23.35) (layer "User.1") (width 0.01) (tstamp e904528d-2d42-480a-8252-672f06fda2e9))
  (fp_line (start 0.15 -9.35) (end -0.15 -9.35) (layer "User.1") (width 0.01) (tstamp ef63ac7d-6fca-4fb3-a648-a36ad8c21f76))
  (fp_line (start 0.15 -21.85) (end 0.15 -20.85) (layer "User.1") (width 0.01) (tstamp f046f885-7ff1-4de0-a492-14246dd44908))
  (fp_line (start 0.15 -11.85) (end 0.15 -10.85) (layer "User.1") (width 0.01) (tstamp f5e27981-412b-4358-9b18-46904d874ed3))
  (fp_line (start 39.55 -13.35) (end 39.85 -13.35) (layer "User.1") (width 0.01) (tstamp fd423d8b-0fab-4343-9d5d-3c417f6aed19))
  (fp_line (start 0.15 -8.35) (end -0.15 -8.35) (layer "User.1") (width 0.01) (tstamp feecac9f-8bfb-44ac-a877-0943eebc544e))
  (fp_arc (start 38.2 -28.85) (mid 39.366725 -28.366731) (end 39.85 -27.2) (layer "User.1") (width 0.01) (tstamp 3d5939aa-b38a-486d-8828-b9b917a5e67e))
  (fp_arc (start 39.55 -1.5) (mid 39.154577 -0.545443) (end 38.2 -0.15) (layer "User.1") (width 0.01) (tstamp 776c7436-31a9-41dd-a18d-481b33cc50ab))
  (fp_arc (start 38.2 -28.55) (mid 39.154592 -28.154599) (end 39.55 -27.2) (layer "User.1") (width 0.01) (tstamp 9783850c-b27f-40f2-b9ed-49b6352ecf03))
  (fp_arc (start 1.5 0.15) (mid 0.333272 -0.333279) (end -0.15 -1.5) (layer "User.1") (width 0.01) (tstamp 9ecb5009-c98a-4336-8601-5b008f938384))
  (fp_arc (start 0.15 -27.2) (mid 0.545389 -28.154631) (end 1.5 -28.55) (layer "User.1") (width 0.01) (tstamp bafa8559-b74a-4008-ac93-9012320afe12))
  (fp_arc (start 39.85 -1.5) (mid 39.366709 -0.333311) (end 38.2 0.15) (layer "User.1") (width 0.01) (tstamp bfee589e-b2f9-41c1-bddb-eda86eaaed5a))
  (fp_arc (start 1.5 -0.15) (mid 0.545404 -0.545411) (end 0.15 -1.5) (layer "User.1") (width 0.01) (tstamp f4d0f7ed-29e1-4e9a-9d6b-3f487018c711))
  (fp_arc (start -0.15 -27.2) (mid 0.333257 -28.366763) (end 1.5 -28.85) (layer "User.1") (width 0.01) (tstamp f9098d27-3fbb-4695-9d04-4fe8d8830e1b))
  (pad "1" thru_hole roundrect (at 0 -4.4) (size 1.2 3.35) (drill oval 0.6 3.175) (layers *.Cu *.Mask) (roundrect_rratio 0.25) (tstamp 0ea5321e-8132-4a53-bcc5-c4529cea5f14))
  (pad "1" smd custom (at 0 0) (size 0.01 0.01) (layers "F.Cu" "F.Paste" "F.Mask")
    (zone_connect 2)
    (options (clearance outline) (anchor rect))
    (primitives
      (gr_line (start 39.7 -17.15) (end 39.7 -27) (width 0.85))
      (gr_line (start 0 -19) (end 0 -18.7) (width 0.85))
      (gr_line (start 0 -8.95) (end 0 -8.65) (width 0.85))
      (gr_line (start 0 -27.25) (end 0 -26.31) (width 0.85))
      (gr_line (start 0 -16.45) (end 0 -16.15) (width 0.85))
      (gr_line (start 0 -24) (end 0 -23.7) (width 0.85))
      (gr_line (start 0 -14) (end 0 -13.7) (width 0.85))
      (gr_line (start 39.7 -13.7) (end 39.7 -15) (width 0.85))
      (gr_line (start 39.7 -1.66) (end 39.7 -11.5) (width 0.85))
      (gr_line (start 38 -28.75) (end 1.4 -28.75) (width 0.85))
      (gr_line (start 1.7 0) (end 38.05 0) (width 0.85))
      (gr_line (start 0 -11.55) (end 0 -11.25) (width 0.85))
      (gr_line (start 0 -2.2) (end 0 -1.5) (width 0.85))
      (gr_line (start 0 -21.5) (end 0 -21.2) (width 0.85))
  (gr_arc (start 0 -27.25) (mid 0.43934 -28.31) (end 1.5 -28.75) (width 0.85))
  (gr_arc (start 1.5 0) (mid 0.43934 -0.43934) (end 0 -1.5) (width 0.85))
  (gr_arc (start 38.19 -28.69) (mid 39.2490 -28.250885) (end 39.69 -27.191878) (width 0.85))
  (gr_arc (start 39.69 -1.51) (mid 39.25 -0.45) (end 38.19 -0.01) (width 0.85))
    ) (tstamp 19daa00a-7037-40dd-86e0-18f066ebbf7c))
  (zone (net 0) (net_name "") (layers "F.Cu" "F.Paste" "F.SilkS" "User.1") (tstamp c7f9d934-5adc-4db8-8209-14a100c4fa4c) (hatch edge 0.508)
    (connect_pads (clearance 0))
    (min_thickness 0.254)
    (keepout (tracks not_allowed) (vias not_allowed) (pads not_allowed) (copperpour not_allowed) (footprints not_allowed))
    (fill (thermal_gap 0.508) (thermal_bridge_width 0.508))
    (polygon
      (pts
        (xy 0.15 -6.1)
        (xy -0.15 -6.1)
        (xy -0.15 -6.85)
        (xy 0.15 -6.85)
      )
    )
  )
  (group "drawing" (id 10a47700-ddbc-40e4-a02f-337555d9922b)
    (members
      0359e6ea-da3a-40c8-899d-018757bf3d88
      0c85f03f-9a0f-475e-950a-0ba535c4794f
      10f61c4c-6740-49e6-862f-fe4a3544dd0b
      146d3240-834f-42c0-8379-74968a12f2bb
      16400bae-ad5f-4969-99d1-b79e8c007915
      19145216-e45f-4861-be09-437994ab3697
      1cd41ddf-80be-40ea-82f5-a5d39090f366
      1dbe2604-d968-411a-bf13-acba16e802d5
      216cf217-85b4-4b76-ac02-9a74ee451004
      245aaf69-1dfb-4a07-a607-42245bd2c23e
      29775c0e-aef8-43ee-b668-09ec48d90de7
      2dd6d80d-6839-46e2-b689-157f1c0100e0
      34ddfeb6-161b-49f2-a332-0f6194068273
      3d5939aa-b38a-486d-8828-b9b917a5e67e
      4c783dae-2d53-4ce6-90fe-cc6efe283b70
      5168ff11-894b-4943-b12f-db0fe45ad485
      570bad5d-e569-4d54-8843-81626bef2ae1
      59c6d213-a255-4df1-9d0a-f9afde2a4c76
      59e1dabb-ab82-4d56-978a-70e15bf6403e
      73510fe1-4923-4ad3-b2d0-4ea5176de6a5
      776c7436-31a9-41dd-a18d-481b33cc50ab
      77e40989-a83a-4dbf-b438-0a2755fcde3d
      7c92c399-31bd-4eb1-9d62-2b0008053f2a
      85d62250-b5e6-4862-8f63-5df0c488fdb1
      882873b0-090a-4d91-af59-2c86b3d68645
      89d42fbc-84d7-4a5e-a231-ba3d74d79f45
      8e2fc709-62be-43b9-a384-377825bd4107
      96585533-71a6-4c94-bc76-e3143ab68207
      9783850c-b27f-40f2-b9ed-49b6352ecf03
      9a15526b-e064-46d6-818a-2cffea4ba94e
      9ecb5009-c98a-4336-8601-5b008f938384
      a0361431-cc04-4522-94ff-418e31561261
      a2a2309e-bc3b-41b3-abc9-508f83247d2f
      a8901ec5-57d8-44e5-ba96-5eaf59431cf3
      b85d1e62-ad8f-4993-ad1c-dad2c5b0a642
      bafa8559-b74a-4008-ac93-9012320afe12
      bfee589e-b2f9-41c1-bddb-eda86eaaed5a
      c5649d93-3d79-4934-81c3-7edcc201c3dc
      c6f124ee-aa5f-466c-aa65-82a5dcdc5a12
      cc834d15-dc32-449b-858d-ad7ee6214dfd
      d4d1f122-1a2f-42e2-a91f-89664893c7a5
      d675aece-21e8-4458-ae62-69e7d7a70f6e
      d715e731-fd61-409e-ba6e-6031ae3d0293
      dd951fcc-0581-43d2-a95a-a9a0fac26a20
      e0c86514-277f-4acf-afb7-9b33189b78a1
      e261ad8a-caf5-4fd0-964f-6820e22442e6
      e637a796-bc16-4399-9278-a0cdd80deb84
      e75f6cf4-0cbe-4fd5-ad65-56a19c7f7126
      e904528d-2d42-480a-8252-672f06fda2e9
      ef63ac7d-6fca-4fb3-a648-a36ad8c21f76
      f046f885-7ff1-4de0-a492-14246dd44908
      f4d0f7ed-29e1-4e9a-9d6b-3f487018c711
      f5e27981-412b-4358-9b18-46904d874ed3
      f9098d27-3fbb-4695-9d04-4fe8d8830e1b
      fd423d8b-0fab-4343-9d5d-3c417f6aed19
      feecac9f-8bfb-44ac-a877-0943eebc544e
    )
  )
)
